{
    "/js/app.js": "/js/app.js",
    "/css/app-style.css": "/css/app-style.css",
    "/css/admin-style.css": "/css/admin-style.css",
    "/css/app.css": "/css/app.css",
    "/css/admin.css": "/css/admin.css",
    "/js/admin.js": "/js/admin.js",
    "/js/bower.js": "/js/bower.js",
    "/js/admin-bower.js": "/js/admin-bower.js",
    "/css/bower.css": "/css/bower.css",
    "/css/admin-bower.css": "/css/admin-bower.css"
}